서울특별시 Seoul 37.5666103,126.9783882
부산광역시 Busan 35.179816,129.0750223
기장군 Gijang-gun 35.244498,129.222312
대구광역시 Daegu 35.87139,128.601763
군위군 Gunwi-gun 36.242945,128.572657
달성군 Dalseong-gun 35.7746,128.431445
인천광역시 Incheon 37.4559418,126.7051505
강화군 Ganghwa-gun 37.746498,126.488052
옹진군 Ongjin-gun 37.446607,126.63676
광주광역시 Gwangju 35.160032,126.851338
대전광역시 Daejeon 36.3504396,127.3849508
울산광역시 Ulsan 35.5394773,129.3112994
울주군 Ulju-gun 35.5220885,129.2422295
세종특별자치시 Sejong 36.4803512,127.2894325
고양시 Goyang-si 37.6583981,126.8319831
과천시 Gwacheon-si 37.4292013,126.987675
광명시 Gwangmyeong-si 37.4786176,126.8646504
광주시 Gwangju-si 37.4294306,127.2550476
구리시 Guri-si 37.594266,127.129632
군포시 Gunpo-si 37.361523,126.935338
김포시 Gimpo-si 37.61535,126.715544
남양주시 Namyangju-si 37.635985,127.216467
동두천시 Dongducheon-si 37.903662,127.060671
부천시 Bucheon-si 37.5035917,126.766
성남시 Seongnam-si 37.4200267,127.1267772
수원시 Suwon-si 37.263476,127.028646
시흥시 Siheung-si 37.380177,126.802934
안산시 Ansan-si 37.3219123,126.8308176
안성시 Anseong-si 37.0080546,127.2797732
안양시 Anyang-si 37.3942905,126.9567534
양주시 Yangju-si 37.785329,127.045847
여주시 Yeoju-si 37.2953583,127.6396222
오산시 Osan-si 37.149887,127.077462
용인시 Yongin-si 37.2412522,127.1774916
의왕시 Uiwang-si 37.3448869,126.9682786
의정부시 Uijeongbu-si 37.738083,127.033753
이천시 Icheon-si 37.272342,127.435034
파주시 Paju-si 37.760186,126.779883
평택시 Pyeongtaek-si 36.9923537,127.1126947
포천시 Pocheon-si 37.894867,127.2002404
하남시 Hanam-si 37.5393014,127.2148742
화성시 Hwaseong-si 37.199565,126.831405
가평군 Gapyeong-gun 37.831508,127.509541
양평군 Yangpyeong-gun 37.491791,127.487597
연천군 Yeoncheon-gun 38.096738,127.074755
강릉시 Gangneung-si 37.752175,128.875836
동해시 Donghae-si 37.5247583,129.1142625
삼척시 Samcheok-si 37.4499354,129.1651479
속초시 Sokcho-si 38.207169,128.59184
원주시 Wonju-si 37.3423179,127.9199688
춘천시 Chuncheon-si 37.8813739,127.7300034
태백시 Taebaek-si 37.164132,128.985735
고성군(강원도) Goseong-gun 38.3806154,128.4678625
양구군 Yanggu-gun 38.109992,127.99
양양군 Yangyang-gun 38.075493,128.619145
영월군 Yeongwol-gun 37.183774,128.46185
인제군 Inje-gun 38.069732,128.170352
정선군 Jeongseon-gun 37.380609,128.660871
철원군 Cheorwon-gun 38.146861,127.313472
평창군 Pyeongchang-gun 37.37077,128.390193
홍천군 Hongcheon-gun 37.697207,127.888518
화천군 Hwacheon-gun 38.106181,127.708216
횡성군 Hoengseong-gun 37.491803,127.985022
제천시 Jecheon-si 37.132646,128.191037
청주시 Cheongju-si 36.6424987,127.488975
충주시 Chungju-si 36.991105,127.926012
괴산군 Goesan-gun 36.815381,127.786704
단양군 Danyang-gun 36.984539,128.365589
보은군 Boeun-gun 36.489455,127.729485
영동군 Yeongdong-gun 36.175047,127.783423
옥천군 Okcheon-gun 36.3064369,127.5714191
증평군 Jeungpyeong-gun 36.785345,127.581507
진천군 Jincheon-gun 36.85542,127.435602
계룡시 Gyeryong-si 36.274554,127.248633
공주시 Gongju-si 36.446556,127.11904
논산시 Nonsan-si 36.1872399,127.0986227
당진시 Dangjin-si 36.8899744,126.6459003
보령시 Boryeong-si 36.333452,126.612803
서산시 Seosan-si 36.7849216,126.4502766
아산시 Asan-si 36.790013,127.002474
천안시 Cheonan-si 36.815147,127.113892
금산군 Geumsan-gun 36.108857,127.488213
부여군 Buyeo-gun 36.275658,126.909775
서천군 Seocheon-gun 36.080286,126.6917418
예산군 Yesan-gun 36.6808995,126.8447382
청양군 Cheongyang-gun 36.459151,126.802238
태안군 Taean-gun 36.74561,126.297913
홍성군 Hongseong-gun 36.601324,126.660775
군산시 Gunsan-si 35.9676263,126.736875
김제시 Gimje-si 35.8035917,126.8808375
남원시 Namwon-si 35.416432,127.390438
익산시 Iksan-si 35.948295,126.957786
전주시 Jeonju-si 35.824171,127.14805
정읍시 Jeongeup-si 35.569867,126.856038
고창군 Gochang-gun 35.435836,126.701973
무주군 Muju-gun 36.00681,127.660818
부안군 Buan-gun 35.731755,126.733199
순창군 Sunchang-gun 35.374476,127.137489
완주군 Wanju-gun 35.904708,127.162019
임실군 Imsil-gun 35.6178286,127.2890774
장수군 Jangsu-gun 35.647366,127.5215208
진안군 Jinan-gun 35.7917621,127.424875
광양시 Gwangyang-si 34.9406575,127.6958987
나주시 Naju-si 35.015814,126.710814
목포시 Mokpo-si 34.811875,126.3923375
순천시 Suncheon-si 34.9506984,127.487243
여수시 Yeosu-si 34.760425,127.662313
강진군 Gangjin-gun 34.64209,126.7672
고흥군 Goheung-gun 34.6047049,127.275507
곡성군 Gokseong-gun 35.2820169,127.2919779
구례군 Gurye-gun 35.2025096,127.4629375
담양군 Damyang-gun 35.321175,126.988175
무안군 Muan-gun 34.9904886,126.4817117
보성군 Boseong-gun 34.771458,127.080088
신안군 Sinan-gun 34.833626,126.351124
영광군 Yeonggwang-gun 35.2772127,126.5120143
영암군 Yeongam-gun 34.8001638,126.6967961
완도군 Wando-gun 34.3110391,126.7548524
장성군 Jangseong-gun 35.301943,126.784814
장흥군 Jangheung-gun 34.681622,126.9070507
진도군 Jindo-gun 34.486818,126.263475
함평군 Hampyeong-gun 35.065929,126.5165816
해남군 Haenam-gun 34.573558,126.599225
화순군 Hwasun-gun 35.0645238,126.9864771
경산시 Gyeongsan-si 35.82509,128.741201
경주시 Gyeongju-si 35.856242,129.224784
구미시 Gumi-si 36.1195987,128.3443
김천시 Gimcheon-si 36.1397714,128.1136148
문경시 Mungyeong-si 36.586522,128.186787
상주시 Sangju-si 36.411002,128.159229
안동시 Andong-si 36.568425,128.7295375
영주시 Yeongju-si 36.805667,128.624063
영천시 Yeongcheon-si 35.97326,128.938613
포항시 Pohang-si 36.0190333,129.3433898
고령군 Goryeong-gun 35.725968,128.262688
칠곡군 Chilgok-gun 35.9955753,128.401679
봉화군 Bonghwa-gun 36.893114,128.732503
성주군 Seongju-gun 35.919175,128.282959
영덕군 Yeongdeok-gun 36.415034,129.365267
영양군 Yeongyang-gun 36.6667174,129.1123839
예천군 Yecheon-gun 36.6468844,128.4373552
울릉군 Ulleung-gun 37.484455,130.905697
울진군 Uljin-gun 36.993087,129.400394
의성군 Uiseong-gun 36.3527158,128.6971711
청도군 Cheongdo-gun 35.647399,128.733988
청송군 Cheongsong-gun 36.4362793,129.0571263
거제시 Geoje-si 34.8804572,128.6211703
김해시 Gimhae-si 35.228574,128.889322
밀양시 Miryang-si 35.503856,128.746712
사천시 Sacheon-si 35.0034774,128.0638649
양산시 Yangsan-si 35.335049,129.037339
진주시 Jinju-si 35.180325,128.107646
창원시 Changwon-si 35.2278771,128.6818746
통영시 Tongyeong-si 34.85439,128.433112
거창군 Geochang-gun 35.686698,127.909538
고성군(경상남도) Goseong-gun 34.9730975,128.3222643
남해군 Namhae-gun 34.837707,127.892475
산청군 Sancheong-gun 35.415557,127.873458
의령군 Uiryeong-gun 35.3222239,128.261676
창녕군 Changnyeong-gun 35.544611,128.492346
하동군 Hadong-gun 35.067333,127.751275
함안군 Haman-gun 35.272315,128.406595
함양군 Hamyang-gun 35.520536,127.725245
합천군 Hapcheon-gun 35.56666,128.165799
서귀포시 Seogwipo-si 33.253925,126.5597875
제주시 Jeju-si 33.499568,126.531138
